digraph Tree {
node [shape=box] ;
0 [label="YearBuilt <= 1955.5\ngini = 0.5\nsamples = 900\nvalue = [46475, 46475]\nclass = CentralAir" color="blue"] ;
1 [label="OverallCond <= 6.5\ngini = 0.336\nsamples = 259\nvalue = [42250, 11495]\nclass = CentralAir" color="blue"] ;
0 -> 1 [labeldistance=2.5, labelangle=45, headlabel="True"] ;
2 [label="OverallCond <= 4.5\ngini = 0.231\nsamples = 138\nvalue = [34645, 5335]\nclass = CentralAir" color="blue"] ;
1 -> 2 ;
3 [label="LotArea <= 12134.0\ngini = 0.094\nsamples = 36\nvalue = [16900, 880]\nclass = CentralAir" color="blue"] ;
2 -> 3 ;
4 [label="YearBuilt <= 1886.0\ngini = 0.078\nsamples = 33\nvalue = [16900, 715]\nclass = CentralAir" color="blue"] ;
3 -> 4 ;
5 [label="gini = 0.0\nsamples = 1\nvalue = [0, 55]\nclass = No CentralAir" color="red"] ;
4 -> 5 ;
6 [label="TotalBsmtSF <= 701.0\ngini = 0.072\nsamples = 32\nvalue = [16900, 660]\nclass = CentralAir" color="blue"] ;
4 -> 6 ;
7 [label="gini = 0.0\nsamples = 9\nvalue = [7605, 0]\nclass = CentralAir" color="blue"] ;
6 -> 7 ;
8 [label="TotalBsmtSF <= 776.0\ngini = 0.124\nsamples = 23\nvalue = [9295, 660]\nclass = CentralAir" color="blue"] ;
6 -> 8 ;
9 [label="gini = 0.0\nsamples = 5\nvalue = [0, 275]\nclass = No CentralAir" color="red"] ;
8 -> 9 ;
10 [label="LotArea <= 8008.0\ngini = 0.076\nsamples = 18\nvalue = [9295, 385]\nclass = CentralAir" color="blue"] ;
8 -> 10 ;
11 [label="TotalBsmtSF <= 1031.0\ngini = 0.184\nsamples = 11\nvalue = [3380, 385]\nclass = CentralAir" color="blue"] ;
10 -> 11 ;
12 [label="YearBuilt <= 1953.5\ngini = 0.115\nsamples = 8\nvalue = [3380, 220]\nclass = CentralAir" color="blue"] ;
11 -> 12 ;
13 [label="LotArea <= 7392.5\ngini = 0.089\nsamples = 7\nvalue = [3380, 165]\nclass = CentralAir" color="blue"] ;
12 -> 13 ;
14 [label="LotArea <= 6420.0\ngini = 0.061\nsamples = 6\nvalue = [3380, 110]\nclass = CentralAir" color="blue"] ;
13 -> 14 ;
15 [label="YearBuilt <= 1944.5\ngini = 0.204\nsamples = 3\nvalue = [845, 110]\nclass = CentralAir" color="blue"] ;
14 -> 15 ;
16 [label="gini = 0.0\nsamples = 2\nvalue = [0, 110]\nclass = No CentralAir" color="red"] ;
15 -> 16 ;
17 [label="gini = 0.0\nsamples = 1\nvalue = [845, 0]\nclass = CentralAir" color="blue"] ;
15 -> 17 ;
18 [label="gini = 0.0\nsamples = 3\nvalue = [2535, 0]\nclass = CentralAir" color="blue"] ;
14 -> 18 ;
19 [label="gini = 0.0\nsamples = 1\nvalue = [0, 55]\nclass = No CentralAir" color="red"] ;
13 -> 19 ;
20 [label="gini = 0.0\nsamples = 1\nvalue = [0, 55]\nclass = No CentralAir" color="red"] ;
12 -> 20 ;
21 [label="gini = 0.0\nsamples = 3\nvalue = [0, 165]\nclass = No CentralAir" color="red"] ;
11 -> 21 ;
22 [label="gini = 0.0\nsamples = 7\nvalue = [5915, 0]\nclass = CentralAir" color="blue"] ;
10 -> 22 ;
23 [label="gini = 0.0\nsamples = 3\nvalue = [0, 165]\nclass = No CentralAir" color="red"] ;
3 -> 23 ;
24 [label="LotArea <= 7213.5\ngini = 0.321\nsamples = 102\nvalue = [17745, 4455]\nclass = CentralAir" color="blue"] ;
2 -> 24 ;
25 [label="YearBuilt <= 1949.5\ngini = 0.177\nsamples = 40\nvalue = [12675, 1375]\nclass = CentralAir" color="blue"] ;
24 -> 25 ;
26 [label="TotalBsmtSF <= 1004.5\ngini = 0.159\nsamples = 37\nvalue = [12675, 1210]\nclass = CentralAir" color="blue"] ;
25 -> 26 ;
27 [label="LotArea <= 4275.0\ngini = 0.141\nsamples = 34\nvalue = [12675, 1045]\nclass = CentralAir" color="blue"] ;
26 -> 27 ;
28 [label="gini = 0.0\nsamples = 2\nvalue = [0, 110]\nclass = No CentralAir" color="red"] ;
27 -> 28 ;
29 [label="TotalBsmtSF <= 726.0\ngini = 0.128\nsamples = 32\nvalue = [12675, 935]\nclass = CentralAir" color="blue"] ;
27 -> 29 ;
30 [label="GrLivArea <= 1221.0\ngini = 0.025\nsamples = 12\nvalue = [8450, 110]\nclass = CentralAir" color="blue"] ;
29 -> 30 ;
31 [label="gini = 0.0\nsamples = 8\nvalue = [6760, 0]\nclass = CentralAir" color="blue"] ;
30 -> 31 ;
32 [label="OverallQual <= 5.5\ngini = 0.115\nsamples = 4\nvalue = [1690, 110]\nclass = CentralAir" color="blue"] ;
30 -> 32 ;
33 [label="gini = 0.0\nsamples = 2\nvalue = [0, 110]\nclass = No CentralAir" color="red"] ;
32 -> 33 ;
34 [label="gini = 0.0\nsamples = 2\nvalue = [1690, 0]\nclass = CentralAir" color="blue"] ;
32 -> 34 ;
35 [label="GrLivArea <= 1681.0\ngini = 0.273\nsamples = 20\nvalue = [4225, 825]\nclass = CentralAir" color="blue"] ;
29 -> 35 ;
36 [label="GrLivArea <= 919.0\ngini = 0.5\nsamples = 16\nvalue = [845, 825]\nclass = CentralAir" color="blue"] ;
35 -> 36 ;
37 [label="OverallQual <= 5.5\ngini = 0.273\nsamples = 4\nvalue = [845, 165]\nclass = CentralAir" color="blue"] ;
36 -> 37 ;
38 [label="gini = 0.0\nsamples = 3\nvalue = [0, 165]\nclass = No CentralAir" color="red"] ;
37 -> 38 ;
39 [label="gini = 0.0\nsamples = 1\nvalue = [845, 0]\nclass = CentralAir" color="blue"] ;
37 -> 39 ;
40 [label="gini = 0.0\nsamples = 12\nvalue = [0, 660]\nclass = No CentralAir" color="red"] ;
36 -> 40 ;
41 [label="gini = 0.0\nsamples = 4\nvalue = [3380, 0]\nclass = CentralAir" color="blue"] ;
35 -> 41 ;
42 [label="gini = 0.0\nsamples = 3\nvalue = [0, 165]\nclass = No CentralAir" color="red"] ;
26 -> 42 ;
43 [label="gini = 0.0\nsamples = 3\nvalue = [0, 165]\nclass = No CentralAir" color="red"] ;
25 -> 43 ;
44 [label="YearBuilt <= 1920.5\ngini = 0.47\nsamples = 62\nvalue = [5070, 3080]\nclass = CentralAir" color="blue"] ;
24 -> 44 ;
45 [label="LotArea <= 8331.5\ngini = 0.204\nsamples = 12\nvalue = [3380, 440]\nclass = CentralAir" color="blue"] ;
44 -> 45 ;
46 [label="gini = 0.0\nsamples = 2\nvalue = [0, 110]\nclass = No CentralAir" color="red"] ;
45 -> 46 ;
47 [label="YearBuilt <= 1892.5\ngini = 0.162\nsamples = 10\nvalue = [3380, 330]\nclass = CentralAir" color="blue"] ;
45 -> 47 ;
48 [label="gini = 0.0\nsamples = 1\nvalue = [0, 55]\nclass = No CentralAir" color="red"] ;
47 -> 48 ;
49 [label="GrLivArea <= 1941.0\ngini = 0.139\nsamples = 9\nvalue = [3380, 275]\nclass = CentralAir" color="blue"] ;
47 -> 49 ;
50 [label="OverallQual <= 3.5\ngini = 0.37\nsamples = 6\nvalue = [845, 275]\nclass = CentralAir" color="blue"] ;
49 -> 50 ;
51 [label="gini = 0.0\nsamples = 1\nvalue = [845, 0]\nclass = CentralAir" color="blue"] ;
50 -> 51 ;
52 [label="gini = 0.0\nsamples = 5\nvalue = [0, 275]\nclass = No CentralAir" color="red"] ;
50 -> 52 ;
53 [label="gini = 0.0\nsamples = 3\nvalue = [2535, 0]\nclass = CentralAir" color="blue"] ;
49 -> 53 ;
54 [label="LotArea <= 11907.0\ngini = 0.476\nsamples = 50\nvalue = [1690, 2640]\nclass = No CentralAir" color="red"] ;
44 -> 54 ;
55 [label="gini = 0.0\nsamples = 36\nvalue = [0, 1980]\nclass = No CentralAir" color="red"] ;
54 -> 55 ;
56 [label="TotalBsmtSF <= 1023.0\ngini = 0.404\nsamples = 14\nvalue = [1690, 660]\nclass = CentralAir" color="blue"] ;
54 -> 56 ;
57 [label="gini = 0.0\nsamples = 9\nvalue = [0, 495]\nclass = No CentralAir" color="red"] ;
56 -> 57 ;
58 [label="TotalBsmtSF <= 1190.0\ngini = 0.162\nsamples = 5\nvalue = [1690, 165]\nclass = CentralAir" color="blue"] ;
56 -> 58 ;
59 [label="gini = 0.0\nsamples = 2\nvalue = [1690, 0]\nclass = CentralAir" color="blue"] ;
58 -> 59 ;
60 [label="gini = 0.0\nsamples = 3\nvalue = [0, 165]\nclass = No CentralAir" color="red"] ;
58 -> 60 ;
61 [label="YearBuilt <= 1912.0\ngini = 0.494\nsamples = 121\nvalue = [7605, 6160]\nclass = CentralAir" color="blue"] ;
1 -> 61 ;
62 [label="LotArea <= 12633.5\ngini = 0.241\nsamples = 21\nvalue = [5070, 825]\nclass = CentralAir" color="blue"] ;
61 -> 62 ;
63 [label="GarageCars <= 0.5\ngini = 0.177\nsamples = 16\nvalue = [5070, 550]\nclass = CentralAir" color="blue"] ;
62 -> 63 ;
64 [label="gini = 0.0\nsamples = 4\nvalue = [0, 220]\nclass = No CentralAir" color="red"] ;
63 -> 64 ;
65 [label="GrLivArea <= 1299.0\ngini = 0.115\nsamples = 12\nvalue = [5070, 330]\nclass = CentralAir" color="blue"] ;
63 -> 65 ;
66 [label="gini = 0.0\nsamples = 2\nvalue = [0, 110]\nclass = No CentralAir" color="red"] ;
65 -> 66 ;
67 [label="GrLivArea <= 1773.5\ngini = 0.08\nsamples = 10\nvalue = [5070, 220]\nclass = CentralAir" color="blue"] ;
65 -> 67 ;
68 [label="OverallCond <= 7.5\ngini = 0.204\nsamples = 6\nvalue = [1690, 220]\nclass = CentralAir" color="blue"] ;
67 -> 68 ;
69 [label="YearBuilt <= 1908.0\ngini = 0.061\nsamples = 3\nvalue = [1690, 55]\nclass = CentralAir" color="blue"] ;
68 -> 69 ;
70 [label="gini = 0.0\nsamples = 1\nvalue = [0, 55]\nclass = No CentralAir" color="red"] ;
69 -> 70 ;
71 [label="gini = 0.0\nsamples = 2\nvalue = [1690, 0]\nclass = CentralAir" color="blue"] ;
69 -> 71 ;
72 [label="gini = 0.0\nsamples = 3\nvalue = [0, 165]\nclass = No CentralAir" color="red"] ;
68 -> 72 ;
73 [label="gini = 0.0\nsamples = 4\nvalue = [3380, 0]\nclass = CentralAir" color="blue"] ;
67 -> 73 ;
74 [label="gini = 0.0\nsamples = 5\nvalue = [0, 275]\nclass = No CentralAir" color="red"] ;
62 -> 74 ;
75 [label="OverallQual <= 5.5\ngini = 0.437\nsamples = 100\nvalue = [2535, 5335]\nclass = No CentralAir" color="red"] ;
61 -> 75 ;
76 [label="gini = 0.0\nsamples = 53\nvalue = [0, 2915]\nclass = No CentralAir" color="red"] ;
75 -> 76 ;
77 [label="GrLivArea <= 1556.0\ngini = 0.5\nsamples = 47\nvalue = [2535, 2420]\nclass = CentralAir" color="blue"] ;
75 -> 77 ;
78 [label="LotArea <= 6467.5\ngini = 0.43\nsamples = 24\nvalue = [2535, 1155]\nclass = CentralAir" color="blue"] ;
77 -> 78 ;
79 [label="gini = 0.0\nsamples = 8\nvalue = [0, 440]\nclass = No CentralAir" color="red"] ;
78 -> 79 ;
80 [label="YearBuilt <= 1924.0\ngini = 0.343\nsamples = 16\nvalue = [2535, 715]\nclass = CentralAir" color="blue"] ;
78 -> 80 ;
81 [label="gini = 0.0\nsamples = 6\nvalue = [0, 330]\nclass = No CentralAir" color="red"] ;
80 -> 81 ;
82 [label="YearBuilt <= 1935.5\ngini = 0.229\nsamples = 10\nvalue = [2535, 385]\nclass = CentralAir" color="blue"] ;
80 -> 82 ;
83 [label="OverallCond <= 8.5\ngini = 0.115\nsamples = 6\nvalue = [2535, 165]\nclass = CentralAir" color="blue"] ;
82 -> 83 ;
84 [label="GrLivArea <= 737.0\ngini = 0.08\nsamples = 5\nvalue = [2535, 110]\nclass = CentralAir" color="blue"] ;
83 -> 84 ;
85 [label="gini = 0.0\nsamples = 1\nvalue = [0, 55]\nclass = No CentralAir" color="red"] ;
84 -> 85 ;
86 [label="YearBuilt <= 1927.5\ngini = 0.042\nsamples = 4\nvalue = [2535, 55]\nclass = CentralAir" color="blue"] ;
84 -> 86 ;
87 [label="gini = 0.0\nsamples = 2\nvalue = [1690, 0]\nclass = CentralAir" color="blue"] ;
86 -> 87 ;
88 [label="TotalBsmtSF <= 578.5\ngini = 0.115\nsamples = 2\nvalue = [845, 55]\nclass = CentralAir" color="blue"] ;
86 -> 88 ;
89 [label="gini = 0.0\nsamples = 1\nvalue = [845, 0]\nclass = CentralAir" color="blue"] ;
88 -> 89 ;
90 [label="gini = 0.0\nsamples = 1\nvalue = [0, 55]\nclass = No CentralAir" color="red"] ;
88 -> 90 ;
91 [label="gini = 0.0\nsamples = 1\nvalue = [0, 55]\nclass = No CentralAir" color="red"] ;
83 -> 91 ;
92 [label="gini = 0.0\nsamples = 4\nvalue = [0, 220]\nclass = No CentralAir" color="red"] ;
82 -> 92 ;
93 [label="gini = 0.0\nsamples = 23\nvalue = [0, 1265]\nclass = No CentralAir" color="red"] ;
77 -> 93 ;
94 [label="GarageCars <= 0.5\ngini = 0.192\nsamples = 641\nvalue = [4225, 34980]\nclass = No CentralAir" color="red"] ;
0 -> 94 [labeldistance=2.5, labelangle=-45, headlabel="False"] ;
95 [label="GrLivArea <= 1444.5\ngini = 0.357\nsamples = 17\nvalue = [2535, 770]\nclass = CentralAir" color="blue"] ;
94 -> 95 ;
96 [label="gini = 0.0\nsamples = 13\nvalue = [0, 715]\nclass = No CentralAir" color="red"] ;
95 -> 96 ;
97 [label="YearBuilt <= 1969.5\ngini = 0.042\nsamples = 4\nvalue = [2535, 55]\nclass = CentralAir" color="blue"] ;
95 -> 97 ;
98 [label="gini = 0.0\nsamples = 3\nvalue = [2535, 0]\nclass = CentralAir" color="blue"] ;
97 -> 98 ;
99 [label="gini = 0.0\nsamples = 1\nvalue = [0, 55]\nclass = No CentralAir" color="red"] ;
97 -> 99 ;
100 [label="GrLivArea <= 830.5\ngini = 0.09\nsamples = 624\nvalue = [1690, 34210]\nclass = No CentralAir" color="red"] ;
94 -> 100 ;
101 [label="LotArea <= 8458.5\ngini = 0.478\nsamples = 11\nvalue = [845, 550]\nclass = CentralAir" color="blue"] ;
100 -> 101 ;
102 [label="gini = 0.0\nsamples = 10\nvalue = [0, 550]\nclass = No CentralAir" color="red"] ;
101 -> 102 ;
103 [label="gini = 0.0\nsamples = 1\nvalue = [845, 0]\nclass = CentralAir" color="blue"] ;
101 -> 103 ;
104 [label="OverallQual <= 4.5\ngini = 0.048\nsamples = 613\nvalue = [845, 33660]\nclass = No CentralAir" color="red"] ;
100 -> 104 ;
105 [label="GrLivArea <= 974.0\ngini = 0.458\nsamples = 29\nvalue = [845, 1540]\nclass = No CentralAir" color="red"] ;
104 -> 105 ;
106 [label="TotalBsmtSF <= 956.0\ngini = 0.478\nsamples = 11\nvalue = [845, 550]\nclass = CentralAir" color="blue"] ;
105 -> 106 ;
107 [label="gini = 0.0\nsamples = 9\nvalue = [0, 495]\nclass = No CentralAir" color="red"] ;
106 -> 107 ;
108 [label="YearBuilt <= 1967.5\ngini = 0.115\nsamples = 2\nvalue = [845, 55]\nclass = CentralAir" color="blue"] ;
106 -> 108 ;
109 [label="gini = 0.0\nsamples = 1\nvalue = [0, 55]\nclass = No CentralAir" color="red"] ;
108 -> 109 ;
110 [label="gini = 0.0\nsamples = 1\nvalue = [845, 0]\nclass = CentralAir" color="blue"] ;
108 -> 110 ;
111 [label="gini = 0.0\nsamples = 18\nvalue = [0, 990]\nclass = No CentralAir" color="red"] ;
105 -> 111 ;
112 [label="gini = 0.0\nsamples = 584\nvalue = [0, 32120]\nclass = No CentralAir" color="red"] ;
104 -> 112 ;
}
